20005	0	0	0
20006	1	1	0
20011	1	0	0
20019	0	0	0
20033	1	1	0
20039	0	0	0
20046	1	1	0
20047	0	0	0
20063	1	1	0
20101	0	0	0
20111	1	1	0
20124	0	0	0
20127	0	0	0
20138	1	0	0
20142	0	0	0
20148	1	0	0
20161	0	0	0
20162	1	1	0
20175	1	0	0
20188	0	0	0
20210	0	0	0
20213	1	0	0
20232	1	1	0
20241	1	1	0
20255	0	0	0
20265	1	0	0
20288	1	1	0
20302	0	0	0
20303	0	0	0
20305	1	1	0
20307	0	0	0
20315	1	0	0
20337	1	1	0
20340	1	1	0
20341	1	1	0
20353	1	0	0
20370	0	0	0
20376	0	0	0
20399	1	1	0
20400	0	0	0
20414	0	0	0
20429	0	0	0
20430	0	0	0
20451	0	0	0
20458	1	1	0
20464	1	0	1
20496	0	0	0
20511	0	0	0
20516	0	0	0
20526	0	0	0
20536	1	0	0
20539	0	0	0
20552	0	0	0
20565	0	0	0
20573	0	0	0
20579	1	1	0
20584	1	0	0
20590	1	1	0
20591	1	0	0
20603	0	0	0
20612	0	0	0
20617	1	1	0
20620	1	0	0
20623	1	1	0
20644	0	0	0
20650	0	0	0
20652	1	1	0
20657	1	0	0
20686	0	0	0
20711	0	0	0
20717	0	0	0
20720	1	1	0
20737	1	1	1
20738	0	0	0
20741	1	1	0
20747	1	1	0
20748	0	0	0
20749	0	0	0
20750	0	0	0
20751	1	0	0
20794	0	0	0
20800	0	1	0
20803	0	0	0
20813	0	0	0
20814	0	0	0
20819	0	0	0
20824	0	0	0
20833	1	1	0
20835	1	1	0
20837	1	1	0
20861	0	0	0
20865	0	0	0
20872	1	1	0
20873	0	0	0
20918	0	0	0
20922	0	0	0
20928	0	0	0
20933	0	0	0
20935	0	0	0
20940	0	0	0
20942	0	0	0
20943	0	0	0
20946	1	0	0
20951	0	0	0
20952	0	0	0
20953	1	0	0
20981	1	1	0
20986	0	0	0
20990	0	0	0
21015	1	1	0
21034	1	1	0
21044	0	0	0
21050	1	1	0
21066	1	1	0
21072	0	0	0
21076	0	1	0
21077	0	0	0
21081	0	0	0
21100	1	1	0
21104	1	0	0
21116	0	0	0
21124	1	0	0
21144	1	1	0
21149	0	0	0
21152	1	1	1
21155	0	0	0
21169	0	0	0
21170	1	0	0
21172	1	1	0
21215	1	1	0
21221	0	0	0
21222	0	0	0
21228	0	0	0
21238	0	0	0
21249	0	0	0
21255	0	0	0
21257	1	1	0
21263	0	0	0
21269	0	1	0
21277	1	0	0
21282	1	1	0
21284	1	0	0
21297	1	1	0
21305	1	0	0
21327	1	0	0
21333	1	0	0
21335	0	0	0
21339	1	0	0
21351	0	0	0
21387	0	0	0
21398	0	0	0
21402	0	0	0
21417	1	0	0
21433	1	1	0
21438	1	1	0
21440	0	0	0
21449	0	0	0
21455	1	1	0
21469	0	0	0
21491	0	0	0
21493	0	0	0
21497	0	0	0
21535	1	0	0
21565	0	0	0
21571	0	1	0
21598	0	0	0
21599	1	1	0
21603	1	1	0
21612	1	1	0
21616	0	0	0
21617	1	1	1
21619	0	0	0
21622	1	1	0
21631	1	0	0
21637	0	0	0
21643	1	0	0
21660	0	0	0
21667	0	0	0
21670	1	0	1
21671	0	0	0
21705	0	0	0
21727	1	0	0
21769	1	0	0
21771	0	0	0
21778	0	0	0
21788	0	0	0
21812	0	0	0
21824	0	0	0
21826	0	0	0
21832	1	1	0
21841	1	1	1
21859	0	0	0
21867	0	0	0
21873	1	0	0
21877	0	0	0
21880	1	1	0
21887	1	0	0
21892	1	1	0
21895	0	1	0
21908	0	0	0
21920	0	0	0
21927	0	0	0
21938	0	0	0
21941	0	0	0
21943	0	0	0
21944	0	0	0
21948	1	1	0
21955	1	0	0
21959	1	1	0
21966	0	0	0
21992	0	0	0
22005	0	0	0
22008	0	1	0
22012	0	0	0
22014	1	1	0
22021	0	0	0
22028	1	1	0
22037	1	0	0
22062	1	0	0
22065	0	0	0
22067	0	1	0
22082	0	0	0
22115	1	1	0
22128	1	1	0
22132	0	0	0
22142	1	0	0
22152	1	0	0
22163	1	1	0
22165	1	0	0
22168	1	0	0
22189	0	0	0
22199	0	0	0
22209	1	1	0
22214	0	0	0
22218	0	1	0
22237	0	0	0
22243	0	0	0
22245	0	0	0
22255	1	0	0
22285	0	0	0
22290	0	0	0
22297	0	0	0
22328	0	0	0
22346	0	0	0
22375	1	1	0
22381	0	1	0
22388	1	1	0
22401	0	0	0
22416	0	1	0
22417	0	0	0
22418	0	0	0
22429	0	0	0
22437	1	1	0
22450	0	0	0
22451	0	0	0
22456	0	0	0
22457	0	0	0
22471	1	1	0
22479	0	0	0
22517	1	0	0
22528	0	0	0
22560	0	0	0
22574	0	1	0
22575	0	0	0
22589	1	0	0
22592	1	0	0
22594	1	1	0
22632	0	0	0
22658	1	1	0
22660	1	0	0
22661	0	0	0
22669	0	1	0
22676	1	1	0
22679	0	0	0
22711	0	0	0
22714	1	1	0
22718	0	0	0
22725	1	0	0
22729	0	0	0
22739	0	0	0
22768	1	1	0
22782	0	0	0
22787	0	0	0
22800	0	0	0
22801	0	1	0
22811	0	0	0
22814	0	0	0
22815	0	0	0
22822	0	1	0
22826	0	0	0
22834	0	0	0
22835	0	0	0
22846	0	0	0
22848	1	1	0
22861	0	0	0
22867	0	0	0
22877	0	0	0
22885	1	1	0
22888	0	0	0
22889	0	0	0
22894	0	0	0
22898	1	0	0
22920	1	1	0
22938	0	0	0
22952	0	0	0
22953	1	0	0
22954	0	0	0
22971	1	1	0
22972	1	1	0
22998	0	0	0
23003	0	0	0
23009	1	0	0
23019	1	1	0
23021	1	0	0
23059	1	0	0
23086	0	0	0
23088	0	0	0
23090	1	1	0
23098	1	1	0
23122	0	0	0
23123	0	0	0
23179	1	1	0
23192	1	0	0
23215	1	1	0
23217	0	0	0
23234	0	0	0
23246	1	0	0
23247	1	0	0
23250	0	0	0
23255	0	0	0
23259	0	0	0
23308	0	0	0
23320	0	0	0
23325	0	0	0
23333	0	0	0
23337	1	1	0
23341	0	0	0
23342	0	0	0
23345	0	0	0
23363	0	0	0
23374	0	0	0
23380	0	0	0
23386	0	0	0
23387	0	0	0
23390	1	1	0
23392	0	0	0
23394	0	0	0
23396	1	0	0
23415	1	0	0
23429	1	1	0
23439	1	0	0
23444	1	0	0
23446	0	0	0
23450	1	1	0
23493	1	0	0
23506	1	1	0
23520	1	1	0
23532	0	0	0
23542	1	0	0
23545	1	1	0
23565	1	0	0
23568	1	0	0
23580	0	0	0
23596	0	0	0
23614	0	0	0
23615	1	1	0
23622	0	0	0
23633	0	0	0
23635	0	0	0
23647	1	0	0
23651	1	1	0
23652	0	0	0
23663	0	0	0
23687	0	0	0
23688	1	0	0
23690	0	0	0
23716	1	1	0
23728	0	0	0
23735	0	0	0
23742	0	0	0
23750	0	0	0
23751	0	0	0
23754	0	1	0
23755	0	1	0
23777	0	0	0
23783	1	1	0
23800	0	0	0
23827	1	1	0
23830	0	0	0
23875	0	0	0
23900	0	0	0
23901	1	0	0
23912	0	0	0
23922	1	0	0
23926	0	0	0
23928	1	1	0
23935	1	0	0
23943	0	0	0
23944	0	0	0
23954	1	1	0
23957	1	0	0
23979	1	1	0
23988	0	0	0
23989	0	0	0
23990	0	0	0
23991	0	0	0
24019	0	0	0
24024	1	0	0
24028	0	0	0
24031	0	0	0
24055	1	1	0
24062	1	1	0
24066	0	0	0
24083	0	0	0
24099	1	0	0
24104	0	0	0
24115	0	0	0
24123	1	0	0
24126	0	0	0
24140	1	0	0
24147	1	1	0
24155	1	0	0
24159	0	1	0
24160	0	0	0
24172	0	0	0
24180	0	0	0
24188	0	0	0
24190	0	0	0
24209	0	0	0
24247	1	0	0
24290	1	1	0
24294	0	0	0
24301	1	0	0
24310	1	0	0
24311	0	0	0
24321	1	1	0
24326	0	0	0
24338	1	0	0
24350	0	0	0
24352	1	1	0
24356	1	1	0
24357	1	0	0
24368	1	1	0
24373	1	1	0
24374	0	0	0
24397	1	1	0
24401	1	0	0
24402	0	0	0
24413	0	0	0
24431	0	1	0
24434	1	0	0
24442	0	0	0
24451	1	0	0
24467	1	1	0
24481	1	0	0
24488	1	0	0
24492	0	0	0
24520	0	0	0
24527	0	0	0
24529	0	0	0
24536	0	0	0
24544	1	0	0
24564	1	0	0
24569	0	0	0
24576	0	0	0
24590	1	1	0
24624	0	0	0
24625	0	0	0
24632	0	0	0
24646	0	0	0
24649	0	0	0
24651	0	0	0
24677	0	0	0
24686	0	0	0
24691	0	0	0
24692	0	0	0
24696	1	1	0
24701	1	1	0
24705	0	0	0
24733	0	0	0
24736	1	1	0
24746	0	1	0
24768	1	0	0
24773	1	1	0
24817	0	0	0
24821	0	0	0
24822	1	0	0
24845	1	0	0
24864	1	1	0
24870	0	0	0
24895	0	1	0
24907	1	0	1
24909	1	0	0
24925	0	0	0
24928	1	1	0
24930	1	1	0
24953	0	0	0
24973	0	0	0
24983	1	1	0
24986	1	1	1
